(module USB_C_Receptacle_C136423 (layer F.Cu) (tedit 605968AB)
  (descr "USB Type C, right-angle, SMT, https://datasheet.lcsc.com/szlcsc/1811141824_XKB-Enterprise-U262-161N-4BVC11_C319148.pdf")
  (tags "USB C Type-C Receptacle SMD")
  (attr smd)
  (fp_text reference REF** (at 0 -5.715) (layer F.SilkS)
    (effects (font (size 1 1) (thickness 0.15)))
  )
  (fp_text value USB_C_Receptacle_C136423 (at 0 4.935) (layer F.Fab)
    (effects (font (size 1 1) (thickness 0.15)))
  )
  (fp_line (start -4.47 -3.675) (end 4.47 -3.675) (layer F.Fab) (width 0.1))
  (fp_line (start 4.47 3.675) (end 4.47 -3.675) (layer F.Fab) (width 0.1))
  (fp_line (start -4.47 3.675) (end 4.47 3.675) (layer F.Fab) (width 0.1))
  (fp_line (start -4.47 -3.675) (end -4.47 3.675) (layer F.Fab) (width 0.1))
  (fp_line (start -5.32 4.18) (end -5.32 -4.75) (layer F.CrtYd) (width 0.05))
  (fp_line (start 5.32 4.18) (end -5.32 4.18) (layer F.CrtYd) (width 0.05))
  (fp_line (start 5.32 -4.75) (end 5.32 4.18) (layer F.CrtYd) (width 0.05))
  (fp_line (start -5.32 -4.75) (end 5.32 -4.75) (layer F.CrtYd) (width 0.05))
  (fp_line (start 4.58 3.785) (end -4.58 3.785) (layer F.SilkS) (width 0.12))
  (fp_line (start -4.58 3.785) (end -4.58 2.08) (layer F.SilkS) (width 0.12))
  (fp_line (start 4.58 2.08) (end 4.58 3.785) (layer F.SilkS) (width 0.12))
  (fp_line (start 4.58 0.07) (end 4.58 -1.85) (layer F.SilkS) (width 0.12))
  (fp_line (start -4.58 -1.85) (end -4.58 0.07) (layer F.SilkS) (width 0.12))
  (fp_text user %R (at 0 0) (layer F.Fab)
    (effects (font (size 1 1) (thickness 0.15)))
  )
  (fp_line (start -3.3 -4.71) (end -2.95 -4.71) (layer F.SilkS) (width 0.15))
  (fp_line (start -2.95 -4.71) (end -3.21 -4.45) (layer F.SilkS) (width 0.15))
  (fp_line (start -3.21 -4.45) (end -3.44 -4.68) (layer F.SilkS) (width 0.15))
  (fp_line (start -3.44 -4.68) (end -3.47 -4.71) (layer F.SilkS) (width 0.15))
  (fp_line (start -3.47 -4.71) (end -3.29 -4.71) (layer F.SilkS) (width 0.15))
  (pad S1 thru_hole oval (at -4.32 -3.105) (size 1 2.1) (drill oval 0.6 1.7) (layers *.Cu *.Mask))
  (pad S1 thru_hole oval (at 4.32 -3.105) (size 1 2.1) (drill oval 0.6 1.7) (layers *.Cu *.Mask))
  (pad S1 thru_hole oval (at -4.32 1.075) (size 1 1.6) (drill oval 0.6 1.2) (layers *.Cu *.Mask))
  (pad S1 thru_hole oval (at 4.32 1.075) (size 1 1.6) (drill oval 0.6 1.2) (layers *.Cu *.Mask))
  (pad "" np_thru_hole circle (at 2.89 -2.605) (size 0.65 0.65) (drill 0.65) (layers *.Cu *.Mask))
  (pad "" np_thru_hole circle (at -2.89 -2.605) (size 0.65 0.65) (drill 0.65) (layers *.Cu *.Mask))
  (pad B1 smd rect (at 3.05 -3.67) (size 0.3 1.15) (layers F.Cu F.Paste F.Mask))
  (pad B4 smd rect (at 2.25 -3.67) (size 0.3 1.15) (layers F.Cu F.Paste F.Mask))
  (pad B5 smd rect (at 1.75 -3.67) (size 0.3 1.15) (layers F.Cu F.Paste F.Mask))
  (pad A8 smd rect (at 1.25 -3.67) (size 0.3 1.15) (layers F.Cu F.Paste F.Mask))
  (pad B6 smd rect (at 0.75 -3.67) (size 0.3 1.15) (layers F.Cu F.Paste F.Mask))
  (pad A7 smd rect (at 0.25 -3.67) (size 0.3 1.15) (layers F.Cu F.Paste F.Mask))
  (pad A6 smd rect (at -0.25 -3.67) (size 0.3 1.15) (layers F.Cu F.Paste F.Mask))
  (pad B7 smd rect (at -0.75 -3.67) (size 0.3 1.15) (layers F.Cu F.Paste F.Mask))
  (pad A5 smd rect (at -1.25 -3.67) (size 0.3 1.15) (layers F.Cu F.Paste F.Mask))
  (pad B8 smd rect (at -1.75 -3.67) (size 0.3 1.15) (layers F.Cu F.Paste F.Mask))
  (pad A4 smd rect (at -2.55 -3.67) (size 0.3 1.15) (layers F.Cu F.Paste F.Mask))
  (pad A1 smd rect (at -3.35 -3.67) (size 0.3 1.15) (layers F.Cu F.Paste F.Mask))
  (pad B12 smd rect (at -3.05 -3.67) (size 0.3 1.15) (layers F.Cu F.Paste F.Mask))
  (pad B9 smd rect (at -2.25 -3.67) (size 0.3 1.15) (layers F.Cu F.Paste F.Mask))
  (pad A9 smd rect (at 2.55 -3.67) (size 0.3 1.15) (layers F.Cu F.Paste F.Mask))
  (pad A12 smd rect (at 3.35 -3.67) (size 0.3 1.15) (layers F.Cu F.Paste F.Mask))
  (model ${KISYS3DMOD}/Connector_USB.3dshapes/USB_C_Receptacle_XKB_U262-16XN-4BVC11.wrl
    (at (xyz 0 0 0))
    (scale (xyz 1 1 1))
    (rotate (xyz 0 0 0))
  )
)
